{
  "path": "/image-gallery",
  "name": "image-gallery",
  "children": [
    {
      "path": "/image-gallery/Negocie Coins",
      "name": "Negocie Coins",
      "children": [
        {
          "path": "/image-gallery/Negocie Coins/1 Home",
          "name": "1 Home",
          "children": [
            {
              "path": "/image-gallery/Negocie Coins/1 Home/1 Home.png",
              "name": "1 Home.png",
              "size": 957689,
              "extension": ".png",
              "type": "file"
            },
            {
              "path": "/image-gallery/Negocie Coins/1 Home/2 Home.png",
              "name": "2 Home.png",
              "size": 1129875,
              "extension": ".png",
              "type": "file"
            },
            {
              "path": "/image-gallery/Negocie Coins/1 Home/3 Home.png",
              "name": "3 Home.png",
              "size": 1132528,
              "extension": ".png",
              "type": "file"
            },
            {
              "path": "/image-gallery/Negocie Coins/1 Home/4 Gráfico.png",
              "name": "4 Gráfico.png",
              "size": 753402,
              "extension": ".png",
              "type": "file"
            },
            {
              "path": "/image-gallery/Negocie Coins/1 Home/5 Gráfico.png",
              "name": "5 Gráfico.png",
              "size": 892772,
              "extension": ".png",
              "type": "file"
            },
            {
              "path": "/image-gallery/Negocie Coins/1 Home/6 Gráfico.png",
              "name": "6 Gráfico.png",
              "size": 895278,
              "extension": ".png",
              "type": "file"
            },
            {
              "path": "/image-gallery/Negocie Coins/1 Home/7 Gráfico.png",
              "name": "7 Gráfico.png",
              "size": 781366,
              "extension": ".png",
              "type": "file"
            },
            {
              "path": "/image-gallery/Negocie Coins/1 Home/8 Gráfico.png",
              "name": "8 Gráfico.png",
              "size": 890927,
              "extension": ".png",
              "type": "file"
            }
          ],
          "size": 7433837,
          "type": "directory"
        },
        {
          "path": "/image-gallery/Negocie Coins/2 Gráfico nas áreas do site",
          "name": "2 Gráfico nas áreas do site",
          "children": [
            {
              "path": "/image-gallery/Negocie Coins/2 Gráfico nas áreas do site/1 Compra-venda.png",
              "name": "1 Compra-venda.png",
              "size": 317529,
              "extension": ".png",
              "type": "file"
            },
            {
              "path": "/image-gallery/Negocie Coins/2 Gráfico nas áreas do site/2 Compra-venda.png",
              "name": "2 Compra-venda.png",
              "size": 295690,
              "extension": ".png",
              "type": "file"
            },
            {
              "path": "/image-gallery/Negocie Coins/2 Gráfico nas áreas do site/3 Compra-venda.png",
              "name": "3 Compra-venda.png",
              "size": 284952,
              "extension": ".png",
              "type": "file"
            },
            {
              "path": "/image-gallery/Negocie Coins/2 Gráfico nas áreas do site/4 Livro de ofertas.png",
              "name": "4 Livro de ofertas.png",
              "size": 272390,
              "extension": ".png",
              "type": "file"
            },
            {
              "path": "/image-gallery/Negocie Coins/2 Gráfico nas áreas do site/5 Livro de ofertas.png",
              "name": "5 Livro de ofertas.png",
              "size": 264572,
              "extension": ".png",
              "type": "file"
            },
            {
              "path": "/image-gallery/Negocie Coins/2 Gráfico nas áreas do site/6 Livro de ofertas.png",
              "name": "6 Livro de ofertas.png",
              "size": 258531,
              "extension": ".png",
              "type": "file"
            }
          ],
          "size": 1693664,
          "type": "directory"
        },
        {
          "path": "/image-gallery/Negocie Coins/3 Avisos",
          "name": "3 Avisos",
          "children": [
            {
              "path": "/image-gallery/Negocie Coins/3 Avisos/1 Avisos Home.png",
              "name": "1 Avisos Home.png",
              "size": 980408,
              "extension": ".png",
              "type": "file"
            },
            {
              "path": "/image-gallery/Negocie Coins/3 Avisos/2 Avisos Home.png",
              "name": "2 Avisos Home.png",
              "size": 945903,
              "extension": ".png",
              "type": "file"
            },
            {
              "path": "/image-gallery/Negocie Coins/3 Avisos/3 Avisos Home.png",
              "name": "3 Avisos Home.png",
              "size": 985616,
              "extension": ".png",
              "type": "file"
            }
          ],
          "size": 2911927,
          "type": "directory"
        },
        {
          "path": "/image-gallery/Negocie Coins/4 Livro de ofertas",
          "name": "4 Livro de ofertas",
          "children": [
            {
              "path": "/image-gallery/Negocie Coins/4 Livro de ofertas/1 Livro de ofertas.png",
              "name": "1 Livro de ofertas.png",
              "size": 272251,
              "extension": ".png",
              "type": "file"
            },
            {
              "path": "/image-gallery/Negocie Coins/4 Livro de ofertas/2 Livro de ofertas.png",
              "name": "2 Livro de ofertas.png",
              "size": 243275,
              "extension": ".png",
              "type": "file"
            },
            {
              "path": "/image-gallery/Negocie Coins/4 Livro de ofertas/3 Livro de ofertas.png",
              "name": "3 Livro de ofertas.png",
              "size": 240624,
              "extension": ".png",
              "type": "file"
            },
            {
              "path": "/image-gallery/Negocie Coins/4 Livro de ofertas/4 Livro de ofertas.png",
              "name": "4 Livro de ofertas.png",
              "size": 293876,
              "extension": ".png",
              "type": "file"
            }
          ],
          "size": 1050026,
          "type": "directory"
        },
        {
          "path": "/image-gallery/Negocie Coins/5 Compra-venda.png",
          "name": "5 Compra-venda.png",
          "size": 313192,
          "extension": ".png",
          "type": "file"
        }
      ],
      "size": 13402646,
      "type": "directory"
    }
  ],
  "size": 13402646,
  "type": "directory"
}